…
[49] "ERCCsumLogErr"                      "numReads"                          
[51] "numMapped"                          "numUnmapped"                       
[53] "overallMapRate"                     "concordMapRate"                    
[55] "bamFile"                            "totalMapped"                       
[57] "mitoMapped"                         "mitoRate"                          
[59] "totalAssignedGene"                  "gene_Assigned"                     
[61] "gene_Unassigned_Unmapped"           "gene_Unassigned_Read_Type"         
[63] "gene_Unassigned_Singleton"          "gene_Unassigned_MappingQuality"    
[65] "gene_Unassigned_Chimera"            "gene_Unassigned_FragmentLength"    
[67] "gene_Unassigned_Duplicate"          "gene_Unassigned_MultiMapping"      
[69] "gene_Unassigned_Secondary"          "gene_Unassigned_NonSplit"          
[71] "gene_Unassigned_NoFeatures"         "gene_Unassigned_Overlapping_Length"
[73] "gene_Unassigned_Ambiguity"          "rRNA_rate"                         
[75] "Dataset"                           
# A tibble: 28 × 3
# Groups:   Test [11]
   Test                      value         n
   <chr>                     <chr>     <int>
 1 adapter_content           PASS        113
 2 basic_statistics          PASS        113
 3 overrepresented_sequences FAIL/WARN     8
 4 overrepresented_sequences PASS         25
 5 overrepresented_sequences PASS/WARN    23
 6 overrepresented_sequences WARN         42
 7 overrepresented_sequences WARN/PASS    15
 8 per_base_n_content        PASS        113
 9 per_base_sequence_content FAIL          5
10 per_base_sequence_content FAIL/WARN    95
# ℹ 18 more rows
…
[49] "ERCCsumLogErr"                      "numReads"                          
[51] "numMapped"                          "numUnmapped"                       
[53] "overallMapRate"                     "concordMapRate"                    
[55] "bamFile"                            "totalMapped"                       
[57] "mitoMapped"                         "mitoRate"                          
[59] "totalAssignedGene"                  "gene_Assigned"                     
[61] "gene_Unassigned_Unmapped"           "gene_Unassigned_Read_Type"         
[63] "gene_Unassigned_Singleton"          "gene_Unassigned_MappingQuality"    
[65] "gene_Unassigned_Chimera"            "gene_Unassigned_FragmentLength"    
[67] "gene_Unassigned_Duplicate"          "gene_Unassigned_MultiMapping"      
[69] "gene_Unassigned_Secondary"          "gene_Unassigned_NonSplit"          
[71] "gene_Unassigned_NoFeatures"         "gene_Unassigned_Overlapping_Length"
[73] "gene_Unassigned_Ambiguity"          "rRNA_rate"                         
[75] "Dataset"                           
# A tibble: 28 × 3
# Groups:   Test [11]
   Test                      value         n
   <chr>                     <chr>     <int>
 1 adapter_content           PASS        113
 2 basic_statistics          PASS        113
 3 overrepresented_sequences FAIL/WARN     8
 4 overrepresented_sequences PASS         25
 5 overrepresented_sequences PASS/WARN    23
 6 overrepresented_sequences WARN         42
 7 overrepresented_sequences WARN/PASS    15
 8 per_base_n_content        PASS        113
 9 per_base_sequence_content FAIL          5
10 per_base_sequence_content FAIL/WARN    95
# ℹ 18 more rows
…
[49] "ERCCsumLogErr"                      "numReads"                          
[51] "numMapped"                          "numUnmapped"                       
[53] "overallMapRate"                     "concordMapRate"                    
[55] "bamFile"                            "totalMapped"                       
[57] "mitoMapped"                         "mitoRate"                          
[59] "totalAssignedGene"                  "gene_Assigned"                     
[61] "gene_Unassigned_Unmapped"           "gene_Unassigned_Read_Type"         
[63] "gene_Unassigned_Singleton"          "gene_Unassigned_MappingQuality"    
[65] "gene_Unassigned_Chimera"            "gene_Unassigned_FragmentLength"    
[67] "gene_Unassigned_Duplicate"          "gene_Unassigned_MultiMapping"      
[69] "gene_Unassigned_Secondary"          "gene_Unassigned_NonSplit"          
[71] "gene_Unassigned_NoFeatures"         "gene_Unassigned_Overlapping_Length"
[73] "gene_Unassigned_Ambiguity"          "rRNA_rate"                         
[75] "Dataset"                           
# A tibble: 28 × 3
# Groups:   Test [11]
   Test                      value         n
   <chr>                     <chr>     <int>
 1 adapter_content           PASS        113
 2 basic_statistics          PASS        113
 3 overrepresented_sequences FAIL/WARN     8
 4 overrepresented_sequences PASS         25
 5 overrepresented_sequences PASS/WARN    23
 6 overrepresented_sequences WARN         42
 7 overrepresented_sequences WARN/PASS    15
 8 per_base_n_content        PASS        113
 9 per_base_sequence_content FAIL          5
10 per_base_sequence_content FAIL/WARN    95
# ℹ 18 more rows
…
[49] "ERCCsumLogErr"                      "numReads"                          
[51] "numMapped"                          "numUnmapped"                       
[53] "overallMapRate"                     "concordMapRate"                    
[55] "bamFile"                            "totalMapped"                       
[57] "mitoMapped"                         "mitoRate"                          
[59] "totalAssignedGene"                  "gene_Assigned"                     
[61] "gene_Unassigned_Unmapped"           "gene_Unassigned_Read_Type"         
[63] "gene_Unassigned_Singleton"          "gene_Unassigned_MappingQuality"    
[65] "gene_Unassigned_Chimera"            "gene_Unassigned_FragmentLength"    
[67] "gene_Unassigned_Duplicate"          "gene_Unassigned_MultiMapping"      
[69] "gene_Unassigned_Secondary"          "gene_Unassigned_NonSplit"          
[71] "gene_Unassigned_NoFeatures"         "gene_Unassigned_Overlapping_Length"
[73] "gene_Unassigned_Ambiguity"          "rRNA_rate"                         
[75] "Dataset"                           
# A tibble: 28 × 3
# Groups:   Test [11]
   Test                      value         n
   <chr>                     <chr>     <int>
 1 adapter_content           PASS        113
 2 basic_statistics          PASS        113
 3 overrepresented_sequences FAIL/WARN     8
 4 overrepresented_sequences PASS         25
 5 overrepresented_sequences PASS/WARN    23
 6 overrepresented_sequences WARN         42
 7 overrepresented_sequences WARN/PASS    15
 8 per_base_n_content        PASS        113
 9 per_base_sequence_content FAIL          5
10 per_base_sequence_content FAIL/WARN    95
# ℹ 18 more rows
…
