…
                                          SAMPLE_ID     Sample  BrNum Position
AN00000906_Br8492_Mid_Nuc AN00000906_Br8492_Mid_Nuc Br8492_mid Br8492   Middle
                          library_type library_prep    library_combo qc_class
AN00000906_Br8492_Mid_Nuc RiboZeroGold          Nuc RiboZeroGold_Nuc     warn
                          concordMapRate   mitoRate numMapped numReads
AN00000906_Br8492_Mid_Nuc         0.8775 0.02314874  67548692 75342612
                          overallMapRate totalAssignedGene totalMapped      PC1
AN00000906_Br8492_Mid_Nuc         0.8966         0.1663363    77704632 104.2753
                                PC2      PC3      PC4       PC5
AN00000906_Br8492_Mid_Nuc -112.4199 77.73315 69.98523 -102.1646
Saving 7 x 7 in image
Saving 7 x 7 in image
Joining with `by = join_by(SAMPLE_ID)`
Joining with `by = join_by(PC_name)`
# A tibble: 666 × 78
   SAMPLE_ID             PC_name PC_val Sample BrNum pos   Position library_prep
   <chr>                 <chr>    <dbl> <chr>  <chr> <chr> <chr>    <chr>       
 1 2107UNHS-0291_Br2720… PC1     -32.4  Br272… Br27… mid   Middle   Bulk        
 2 2107UNHS-0291_Br2720… PC2      14.2  Br272… Br27… mid   Middle   Bulk        
 3 2107UNHS-0291_Br2720… PC3     -31.5  Br272… Br27… mid   Middle   Bulk        
 4 2107UNHS-0291_Br2720… PC4      16.3  Br272… Br27… mid   Middle   Bulk        
 5 2107UNHS-0291_Br2720… PC5      -5.30 Br272… Br27… mid   Middle   Bulk        
 6 2107UNHS-0291_Br2720… PC6       1.59 Br272… Br27… mid   Middle   Bulk        
 7 2107UNHS-0291_Br2720… PC1     -79.2  Br272… Br27… mid   Middle   Cyto        
 8 2107UNHS-0291_Br2720… PC2      22.7  Br272… Br27… mid   Middle   Cyto        
 9 2107UNHS-0291_Br2720… PC3      -1.37 Br272… Br27… mid   Middle   Cyto        
10 2107UNHS-0291_Br2720… PC4       3.86 Br272… Br27… mid   Middle   Cyto        
# ℹ 656 more rows
# ℹ 70 more variables: library_type <chr>, library_combo <chr>, batch <chr>,
#   round <int>, fastq1 <chr>, fastq2 <chr>, strandness <chr>,
#   basic_statistics <chr>, per_base_sequence_quality <chr>,
#   per_tile_sequence_quality <chr>, per_sequence_quality_scores <chr>,
#   per_base_sequence_content <chr>, per_sequence_gc_content <chr>,
#   per_base_n_content <chr>, sequence_length_distribution <chr>, …
…
