…
4 OK                                 12
# A tibble: 10 × 3
   Slide Combo      n
   <fct> <chr>  <int>
 1 2     Circle     1
 2 2     Star       1
 3 4     Circle     4
 4 5     Circle     5
 5 5     Star       5
 6 6     Circle     7
 7 6     Star       4
 8 7     Circle     4
 9 7     Star       7
10 8     Star       4
# A tibble: 42 × 4
   Combo  Slide subslide2     n
   <chr>  <fct> <fct>     <int>
 1 Circle 2     A1            1
 2 Circle 4     A1            1
 3 Circle 4     B1            1
 4 Circle 4     C1            1
 5 Circle 4     D1            1
 6 Circle 5     A1            1
 7 Circle 5     B1            1
 8 Circle 5     C1            1
 9 Circle 5     D1            1
10 Circle 5     A2            1
# ℹ 32 more rows
…
 3 Br3942     6
 4 Br6423     4
 5 Br6432     6
 6 Br6471     4
 7 Br6522     4
 8 Br8325     4
 9 Br8492     4
10 Br8667     4
# A tibble: 3 × 2
  Position      n
  <fct>     <int>
1 Anterior     14
2 Middle       16
3 Posterior    12
# A tibble: 42 × 4
   Combo  Slide subslide2     n
   <chr>  <fct> <fct>     <int>
 1 Circle 2     A1            1
 2 Circle 4     A1            1
 3 Circle 4     B1            1
 4 Circle 4     C1            1
 5 Circle 4     D1            1
 6 Circle 5     A1            1
 7 Circle 5     B1            1
 8 Circle 5     C1            1
 9 Circle 5     D1            1
10 Circle 5     A2            1
# ℹ 32 more rows
…
 [5] "XMin"                            "XMax"                           
 [7] "YMin"                            "YMax"                           
 [9] "DAPI/AKT3"                       "DAPI (DAPI) Positive"           
[11] "DAPI (DAPI) Positive Nucleus"    "DAPI (DAPI) Nucleus Intensity"  
[13] "DAPI (DAPI) Positive Cytoplasm"  "DAPI (DAPI) Cytoplasm Intensity"
[15] "AKT3_Copies"                     "Cell Area (µm²)"                
[17] "Cytoplasm Area (µm²)"            "Nucleus Area (µm²)"             
[19] "Nucleus Perimeter (µm)"          "Nucleus Roundness"              
[21] "JHPCE_path"                      "n_marker"                       
[23] "cell_type"                      
Joining with `by = join_by(JHPCE_path)`
Joining with `by = join_by(SAMPLE_ID)`
`summarise()` has grouped output by 'SAMPLE_ID', 'basename'. You can override
using the `.groups` argument.
# A tibble: 34 × 4
# Groups:   SAMPLE_ID, basename [34]
   SAMPLE_ID      basename                                      Confidence     n
   <chr>          <chr>                                         <fct>      <int>
 1 Br2720M_CIRCLE HALO_RESCAN_2720M_B1R1_Circle_AKT3_Fused.tif… Low        14506
 2 Br2720P_CIRCLE HALO_allsections_round3_AKT3_Circle_Fused.ti… High       36772
 3 Br2720P_STAR   HALO_allsections_Round3_AKT3_Star_Fused.tif_… High       38090
 4 Br2743A_CIRCLE HALO_allsections_round3_AKT3_Circle_Fused.ti… OK         58189
 5 Br2743A_STAR   HALO_allsections_Round3_AKT3_Star_Fused.tif_… High       50069
 6 Br3942A_CIRCLE HALO_Round3_BO_AKT3_Circle_Fused.tif_job1715… High       51184
 7 Br3942M_CIRCLE HALO_Allsections_round4_AKT3_Circle_Fused.ti… High       36229
 8 Br3942M_STAR   HALO_allsections_AKT3_Star_Fused.tif_job1692… OK         35519
 9 Br3942P_CIRCLE HALO_allsections_round3_AKT3_Circle_Fused.ti… High       53506
10 Br6423A_CIRCLE HALO_Allsections_round4_AKT3_Circle_Fused.ti… OK         47405
# ℹ 24 more rows
…
