…
16 Br8492_mid  Excluded High     FALSE     TRUE     FALSE   TRUE  
17 Br3942_post Excluded High     FALSE     TRUE     FALSE   TRUE  
18 Br3942_ant  Excluded High     FALSE     TRUE     FALSE   TRUE  
19 Br2720_mid  Excluded Low      FALSE     FALSE    FALSE   FALSE 
20 Br6432_ant  Excluded Excluded FALSE     FALSE    FALSE   FALSE 
21 Br6432_mid  Excluded Excluded FALSE     FALSE    FALSE   FALSE 
# A tibble: 3 × 3
  both_ok one_ok     n
  <lgl>   <lgl>  <int>
1 FALSE   FALSE      5
2 FALSE   TRUE       6
3 TRUE    TRUE      10
Loading objects:
  halo_all
# A tibble: 26 × 3
# Groups:   Sample, Confidence [26]
   Sample      Confidence     n
   <chr>       <fct>      <int>
 1 Br2720_mid  Low        14506
 2 Br2720_post High       74862
 3 Br2743_ant  High       50069
 4 Br2743_ant  OK         58189
 5 Br3942_ant  High       51184
 6 Br3942_mid  High       36229
 7 Br3942_mid  OK         35519
 8 Br3942_post High       53506
 9 Br6423_ant  OK         94847
10 Br6423_post High       85539
# ℹ 16 more rows
…
