…
6: In ggally_statistic(data = data, mapping = mapping, na.rm = na.rm,  :
  Removed 20 rows containing missing values
7: In ggally_statistic(data = data, mapping = mapping, na.rm = na.rm,  :
  Removed 20 rows containing missing values
8: In ggally_statistic(data = data, mapping = mapping, na.rm = na.rm,  :
  Removed 20 rows containing missing values
9: In ggally_statistic(data = data, mapping = mapping, na.rm = na.rm,  :
  Removed 20 rows containing missing values
There were 12 warnings (use warnings() to see them)
Warning message:
Expected 3 pieces. Missing pieces filled with `NA` in 108 rows [2, 7, 12, 17,
22, 27, 32, 37, 42, 47, 52, 57, 62, 67, 72, 77, 82, 87, 92, 97, ...]. 
`summarise()` has grouped output by 'Sample', 'prop_type'. You can override
using the `.groups` argument.
# A tibble: 105 × 4
# Groups:   Sample, prop_type [63]
   Sample      prop_type size_filter `sum(prop, na.rm = TRUE)`
   <chr>       <chr>     <chr>                           <dbl>
 1 Br2720_mid  adj       filter                          0.427
 2 Br2720_mid  adj       preReAnno                       0.443
 3 Br2720_mid  simple    filter                          0.427
 4 Br2720_mid  simple    preReAnno                       0.443
 5 Br2720_mid  sn        prefilter                       0.633
 6 Br2720_post adj       filter                          1    
 7 Br2720_post adj       preReAnno                       0.620
 8 Br2720_post simple    filter                          0.618
 9 Br2720_post simple    preReAnno                       0.620
10 Br2720_post sn        prefilter                       1    
# ℹ 95 more rows
…
