…
`summarise()` has grouped output by 'SAMPLE_ID', 'Sample', 'Dataset', 'BrNum',
'pos', 'library_prep', 'method', 'marker'. You can override using the `.groups`
argument.
Joining with `by = join_by(Sample, cell_type)`
Joining with `by = join_by(Dataset)`
# A tibble: 6 × 2
  cell_type     n
  <fct>     <int>
1 Astro      9900
2 EndoMural  9900
3 Micro      9900
4 OligoOPC   9900
5 Excit      9900
6 Inhib      9900
# A tibble: 90 × 3
   method     marker              n
   <chr>      <fct>           <int>
 1 BayesPrism 1vALL_top25       660
 2 BayesPrism FULL              660
 3 BayesPrism MeanRatio_MAD3    660
 4 BayesPrism MeanRatio_over2   660
 5 BayesPrism MeanRatio_top25   660
 6 BayesPrism HVG10             660
 7 BayesPrism HVG20             660
 8 BayesPrism HVG30             660
 9 BayesPrism HVG40             660
10 BayesPrism HVG50             660
# ℹ 80 more rows
…
